Using data.table with magrittr pipes - best of both worlds
…
library(nycflights13)

nycflights13::flights %>% # `flights` dataset from nycflights13
  data.table::as.data.table() -> flights_tb # Convert to data.table

# Run some analysis on delay times
# Create a new column called carrier_flight, then use it as a grouping variable
# Use data.table syntax
flights_tb %>%
  .[, carrier_flight := paste0(carrier,"_",flight)] %>%
  .[,.(dep_delay = mean(dep_delay, na.rm = TRUE),
       arr_delay = mean(arr_delay, na.rm = TRUE)), by = carrier_flight] %>%
  dplyr::as_tibble() # Convert this back to a tibble (tidyverse) object

## # A tibble: 5,725 x 3
##    carrier_flight dep_delay arr_delay
##    <chr>              <dbl>     <dbl>
##  1 UA_1545            1.51     -9.75 
##  2 UA_1714            5.11     -2.68 
##  3 AA_1141            2.10     -6.56 
##  4 B6_725             0.975     1.66 
##  5 DL_461            -0.709    -5.83 
##  6 UA_1696           21.6       8    
##  7 B6_507             0.789    -0.133
##  8 EV_5708           16.9       8.85 
##  9 B6_79             -0.441    -2.32 
## 10 AA_301            -3.01    -10.9  
## # ... with 5,715 more rows
…
